element,xpath
appLogoText,"//div[@class='app_logo']"
pageTitle,"//span[@class='title']"
products,"//div[@class='inventory_item_name ']"
productName,"//div[@class='inventory_item_name ' and text()='#productName#']"
productDescription,"//div[@class='inventory_item_name ' and text()='#productName#']/parent::a/following-sibling::div"
productPrice,"//div[@class='inventory_item_name ' and text()='#productName#']/parent::a/parent::div/following-sibling::div/div[@class='inventory_item_price']"
productCartButton,"//div[@class='inventory_item_name ' and text()='#productName#']/parent::a/parent::div/following-sibling::div/button"
shoppingCart,"//a[@class='shopping_cart_link']"
shoppingCartBadge,"//a[@class='shopping_cart_link']/span"
sortSelector,"//select[@class='product_sort_container']"